﻿1,Prince of Persia: The Sands of Time,PlayStation 2,2,Veiksmo,Gera,
2,Earthworm Jim 2,Game Boy Advance,2.99,Veiksmo,Gera,
3,WWE SmackDown! Shut Your Mouth,PlayStation 2,5,Sporto,Gera,
4,Jet Li: Rise to Honor,PlayStation 2,3,Nuotykių,Gera,
5,Mario Pinball Land,Game Boy Advance,2.99,Veiksmo,Gera,
6,Teenage Mutant Ninja Turtles (2003),Game Boy Advance,2.5,Veiksmo,Gera,
7,Ice Age 2: The Meltdown (GBA),Game Boy Advance,2.99,Nuotykių,Gera,
8,Mario Golf (1999),Game Boy Color,11.5,Sporto,Kaip nauja,
9,Asterix & Obelix XXL,Game Boy Advance,9.99,Veiksmo,Gera,
10,Rayman,Game Boy Advance,6.99,Veiksmo,Gera,
11,Dragon Ball Z: The Legacy of Goku II,Game Boy Advance,9.99,Veiksmo,Gera,
12,Crash Nitro Kart,Game Boy Advance,9.99,Lenktynių,Gera,
13,Peter Jackson's King Kong,Game Boy Advance,5,Veiksmo,Gera,
14,Mario Kart: Super Circuit (2001),Game Boy Advance,9.99,Lenktynių,Gera,
15,Batman Begins,Game Boy Advance,5.99,Veiksmo,Gera,
16,Brutal Legend,PlayStation 3,5,Veiksmo,Gera,
17,Mafia: Trilogy,PlayStation 4,20,Veiksmo,Gera,
18,Marvel's Spider-Man: Miles Morales Ultimate Edition,PlayStation 5,23,Veiksmo,Kaip naujas,
19,The Last Of Us Remastered,PlayStation 4,7.5,Veiksmo,Gera,
20,The Last Of Us Part II,PlayStation 4,17,Veiksmo,Kaip naujas,
21,The Last Of Us Part II,PlayStation 4,17,Veiksmo,Kaip naujas,
22,Horizon: Forbidden West,PlayStation 5,41.99,Veiksmo,Kaip naujas,
23,Uncharted 4: A Thief's End,PlayStation 4,5,Veiksmo,Kaip naujas,
24,Horizon Zero Dawn,PlayStation 4,4.49,Veiksmo,Patenkinama,
25,Ni no Kuni: Wrath of the White Witch,PlayStation 3,8,Vaidmenų,Gera,
26,The Sims 3 Pets,Nintendo 3DS,12,Simuliacinis,Gera,
27,Minecraft,PlayStation 3,14,Veiksmo,Gera,
28,Ratatouille,PlayStation 3,9,Veiksmo,Gera,
29,FIFA 22,PlayStation 4,24,Sporto,Kaip naujas,
30,Professor Layton and the Miracle Mask,Nintendo 3DS,19,Strateginis,Gera,
31,Grand Theft Auto V,Xbox 360,8,Veiksmo,Gera,
32,Call of Duty: Modern Warfare (2019),PlayStation 4,19.99,Veiksmo,Kaip naujas,
33,It Takes Two,PlayStation 4,23.76,Platforminis,Naujas,
34,The Evil Within 2,PlayStation 4,9.99,Veiksmo,Kaip naujas,
35,Ridge Racer 3D,Nintendo 3DS,9.99,Veiksmo,Kaip naujas,
36,Assassin's Creed IV: Black Flag,PlayStation 4,9,Veiksmo,Naujas,
37,Assassin's Creed Unity,PlayStation 4,8.97,Veiksmo,Kaip naujas,
38,Super Mario Maker,Nintendo 3DS,11,Platforminis,Kaip naujas,
39,Injustice: Gods Among Us,PlayStation 3,6,Veiksmo,Gera,
40,Need for Speed Payback,Xbox One,15,Veiksmo,Kaip naujas,
41,Assassin's Creed Unity,PlayStation 4,8.99,Veiksmo,Kaip naujas,
42,Injustice: Gods Among Us,PlayStation 3,9.99,Veiksmo,Gera,
43,Need for Speed Payback,Xbox One,15,Veiksmo,Kaip naujas,
44,Assassin's Creed Syndicate,Xbox One,9,Veiksmo,Kaip naujas,
45,Far Cry 4,Xbox One,9,Šaudyklė,Kaip naujas,
46,NBA 2K22,PlayStation 4,28.99,Sporto,Naujas,
47,Need for Speed,Xbox One,7,Veiksmo,Kaip naujas,
48,Resident Evil Revelations 2,PlayStation 4,10,Siaubo,Gera,
49,Marvel's Spider-Man: Miles Morales Ultimate Edition,PlayStation 5,23.99,Veiksmo,Kaip naujas,
50,Test Drive Unlimited 2,PlayStation 3,7,Lenktynių,Gera,
51,FIFA 21,PlayStation 4,12,Sporto,Kaip naujas,
52,Gran Turismo 6,PlayStation 3,5,Lenktynių,Gera,
53,Horizon: Forbidden West,PlayStation 4,35,Veiksmo,Naujas,
54,Animal Crossing: New Horizons,Nintendo Switch,40,Simuliacinis,Kaip naujas,
55,Far Cry 6,PlayStation 4,27,Veiksmo,Kaip naujas,
56,Marvel vs. Capcom: Infinite,PlayStation 4,13,Veiksmo,Gera,
57,Disney/Pixar A Bug's Life,PlayStation,3,Veiksmo,Gera,
58,Need for Speed: Underground 2,PlayStation 2,9.99,Lenktynių,Gera,
59,Outlast: Trinity,Xbox One,20,Siaubo,Gera,
60,Animal Crossing: New Horizons,Nintendo Switch,44,Simuliacinis,Naujas,
61,Far Cry 6,PlayStation 4,29.98,Veiksmo,Kaip naujas,
62,Marvel vs. Capcom: Infinite,PlayStation 4,17.48,Veiksmo,Kaip naujas,
63,Disney/Pixar A Bug's Life,PlayStation,3.5,Veiksmo,Gera,
64,Outlast: Trinity,Xbox One,22,Siaubo,Patenkinama,
65,Borderlands: The Handsome Collection,Xbox One,18,Veiksmo,Kaip naujas,
66,Resident Evil: Village,Xbox Series X,35,Siaubo,Kaip naujas,
67,Darksiders III,PlayStation 4,10,Veiksmo,Naujas,
68,Alien Trilogy,PlayStation,10,Veiksmo,Kaip naujas,
69,Death Stranding,PlayStation 4,11.97,Veiksmo,Kaip naujas,
70,LEGO Jurassic World,Nintendo 3DS,5.99,Veiksmo,Gera,
71,UNCHARTED The Nathan Drake Collection,PlayStation 4,7,Veiksmo,Gera,
72,Animal Crossing: Happy Home Designer,Nintendo 3DS,8.99,Simuliacinis,Gera,
73,FIFA 22,Xbox One,14.49,Sporto,Naujas,
74,Mario Tennis Aces,Nintendo Switch,35,Sporto,Gera,
75,Gran Turismo 1997,PlayStation,10,Lenktynių,Gera,
76,Hitman: Absolution,Xbox 360,4.5,Veiksmo,Gera,
77,Dragon Ball Xenoverse,PlayStation 4,7,Veiksmo,Patenkinama,
78,DRAGON BALL XENOVERSE,PlayStation 4,8.9,Veiksmo,Naujas,
79,Death Stranding,PlayStation 4,11.99,Veiksmo,Kaip naujas,
80,UNCHARTED The Nathan Drake Collection,PlayStation 4,10,Veiksmo,Gera,
81,FIFA 22,Xbox One,14.75,Sporto,Naujas,
82,Mario Tennis Aces,Nintendo Switch,45,Sporto,Naujas,
83,Gran Turismo 1997,PlayStation,10,Lenktynių,Kaip naujas,
84,Hitman: Absolution,Xbox 360,5.98,Veiksmo,Kaip naujas,
85,Dragon Ball Xenoverse,PlayStation 4,8.9,Veiksmo,Naujas,
86,DRAGON BALL XENOVERSE 2,PlayStation 4,10,Veiksmo,Kaip naujas,
87,Black Clover: Quartet Knights,PlayStation 4,12,Veiksmo,Kaip naujas,
88,Horizon Zero Dawn Complete Edition,PlayStation 4,7.99,Veiksmo,Naujas,
89,Gran Turismo 7,PlayStation 4,35,Lenktynių,Naujas,
90,Minecraft,Xbox 360,14,Veiksmo,Patenkinama,
91,Call of Duty 3,Xbox 360,5,Veiksmo,Patenkinama,
92,Marvel's Spider-Man,PlayStation 4,15.99,Veiksmo,Gera,
93,Darkest Dungeon Ancestral Edition,PlayStation 4,10,Indie,Kaip naujas,
94,FIFA 22,PlayStation 5,19.87,Sporto,Kaip naujas,
95,The Witcher 3: Game of the Year,Xbox One,16.98,Nuotykių,Gera,
96,The Amazing Spider-Man 2,Xbox 360,25,Veiksmo,Gera,
97,FAST and FURIOUS CROSSROADS,PlayStation 4,15,Lenktynių,Naujas,
98,Need for Speed Heat,Xbox One,15.5,Lenktynių,Kaip naujas,
99,WRC 10 FIA World Rally Championship,PlayStation 5,47.99,Lenktynių,Kaip naujas,
100,Gears of War,Xbox One,5.2,Veiksmo,Kaip naujas,
